{
  "version": "1.0.0-*",
  "buildOptions": {
    "emitEntryPoint": true
  },

  "dependencies": {
    "ChilkatDnCore": "9.5.0.73",
    "Microsoft.NETCore.App": {
      "type": "platform",
      "version": "1.0.1"
    }
  },

  "frameworks": {
    "netcoreapp1.0": {
      "imports": "dnxcore50"
    }
  }
}
